Part37.jpg,59,608,89,644,0
Part37.jpg,38,508,68,544,0
Part37.jpg,29,455,59,491,0
Part37.jpg,9,314,39,350,0
Part37.jpg,42,190,72,226,0
Part37.jpg,74,414,104,450,0
Part37.jpg,100,564,130,600,0
Part37.jpg,131,464,161,500,0
Part37.jpg,85,182,115,218,0
Part37.jpg,293,526,323,562,0
Part37.jpg,344,545,374,581,0
Part37.jpg,396,585,426,621,0
Part37.jpg,327,135,357,171,0
Part37.jpg,239,533,269,569,0
Part37.jpg,264,642,294,678,0
Part37.jpg,448,594,478,630,0
Part37.jpg,438,519,468,555,0
Part37.jpg,415,317,445,353,0
Part37.jpg,424,72,454,108,0
Part37.jpg,390,181,420,217,0
Part37.jpg,379,116,409,152,0
Part37.jpg,372,64,402,100,0
Part37.jpg,362,16,392,52,0
Part37.jpg,429,128,459,164,0
Part37.jpg,460,9,490,45,0
Part37.jpg,468,70,498,106,0
Part37.jpg,478,134,508,170,0
Part37.jpg,533,457,563,493,0
Part37.jpg,539,513,569,549,0
Part37.jpg,581,80,611,116,0
Part37.jpg,593,131,623,167,0
Part37.jpg,655,1,685,35,0
Part37.jpg,666,89,696,125,0
Part37.jpg,649,508,679,544,0
Part37.jpg,652,564,682,600,0
Part37.jpg,538,145,568,182,0
Part37.jpg,523,92,553,129,0
Part37.jpg,521,90,551,127,0
