Part18.jpg,55,656,85,692,0
Part18.jpg,49,605,79,641,0
Part18.jpg,33,502,63,538,0
Part18.jpg,23,431,53,467,0
Part18.jpg,50,275,80,311,0
Part18.jpg,29,179,59,215,0
Part18.jpg,63,357,93,393,0
Part18.jpg,69,414,99,450,0
Part18.jpg,75,469,105,505,0
Part18.jpg,83,544,113,580,0
Part18.jpg,64,127,94,163,0
Part18.jpg,77,204,107,240,0
Part18.jpg,89,275,119,311,0
Part18.jpg,109,372,139,408,0
Part18.jpg,117,429,147,465,0
Part18.jpg,131,500,161,536,0
Part18.jpg,132,572,162,608,0
Part18.jpg,137,625,167,661,0
Part18.jpg,92,30,122,66,0
Part18.jpg,108,90,138,126,0
Part18.jpg,128,226,158,262,0
Part18.jpg,138,287,168,323,0
Part18.jpg,153,362,183,398,0
Part18.jpg,165,415,195,451,0
Part18.jpg,174,493,204,529,0
Part18.jpg,185,571,215,607,0
Part18.jpg,187,631,217,667,0
Part18.jpg,137,11,167,47,0
Part18.jpg,144,69,174,105,0
Part18.jpg,159,129,189,165,0
Part18.jpg,171,199,201,235,0
Part18.jpg,183,257,213,293,0
Part18.jpg,189,309,219,345,0
Part18.jpg,197,361,227,397,0
Part18.jpg,206,412,236,448,0
Part18.jpg,216,466,246,502,0
Part18.jpg,224,519,254,555,0
Part18.jpg,230,575,260,611,0
Part18.jpg,236,628,266,664,0
Part18.jpg,201,144,231,180,0
Part18.jpg,220,222,250,258,0
Part18.jpg,232,287,262,323,0
Part18.jpg,250,395,280,431,0
Part18.jpg,244,342,274,378,0
Part18.jpg,288,640,318,676,0
Part18.jpg,271,552,301,588,0
Part18.jpg,257,189,287,225,0
Part18.jpg,268,256,298,292,0
Part18.jpg,291,361,321,397,0
Part18.jpg,302,425,332,461,0
Part18.jpg,328,482,358,518,0
Part18.jpg,285,103,315,139,0
Part18.jpg,304,213,334,249,0
Part18.jpg,319,268,349,304,0
Part18.jpg,325,325,355,361,0
Part18.jpg,333,383,363,419,0
Part18.jpg,389,429,419,465,0
Part18.jpg,406,509,436,545,0
Part18.jpg,422,601,452,637,0
Part18.jpg,437,662,467,698,0
Part18.jpg,418,293,448,329,0
Part18.jpg,410,245,440,281,0
Part18.jpg,485,487,515,523,0
Part18.jpg,438,448,468,484,0
Part18.jpg,428,397,458,433,0
Part18.jpg,450,520,480,556,0
Part18.jpg,475,633,505,669,0
Part18.jpg,383,132,413,168,0
Part18.jpg,373,89,403,125,0
Part18.jpg,531,653,561,689,0
Part18.jpg,483,423,513,459,0
Part18.jpg,464,321,494,357,0
Part18.jpg,460,267,490,303,0
Part18.jpg,467,72,497,108,0
Part18.jpg,482,141,512,177,0
Part18.jpg,500,221,530,257,0
Part18.jpg,531,439,561,475,0
Part18.jpg,506,276,536,312,0
Part18.jpg,520,356,550,392,0
Part18.jpg,541,496,571,532,0
Part18.jpg,552,551,582,587,0
Part18.jpg,561,608,591,644,0
Part18.jpg,572,662,602,698,0
Part18.jpg,630,655,660,691,0
Part18.jpg,615,605,645,641,0
Part18.jpg,601,566,631,602,0
Part18.jpg,592,518,622,554,0
Part18.jpg,587,464,617,500,0
Part18.jpg,573,409,603,445,0
Part18.jpg,559,341,589,377,0
Part18.jpg,549,289,579,325,0
Part18.jpg,525,123,555,159,0
Part18.jpg,495,16,525,52,0
Part18.jpg,652,551,682,587,0
Part18.jpg,643,496,673,532,0
Part18.jpg,633,443,663,479,0
Part18.jpg,616,378,646,414,0
Part18.jpg,605,308,635,344,0
Part18.jpg,595,248,625,284,0
Part18.jpg,579,195,609,232,0
Part18.jpg,640,181,670,218,0
Part18.jpg,612,130,642,167,0
Part18.jpg,610,128,640,165,0
