Part23.jpg,51,662,81,698,0
Part23.jpg,1,662,30,698,0
Part23.jpg,46,603,76,639,0
Part23.jpg,39,530,69,566,0
Part23.jpg,83,513,113,549,0
Part23.jpg,26,158,56,194,0
Part23.jpg,64,414,94,450,0
Part23.jpg,56,364,86,400,0
Part23.jpg,45,320,75,356,0
Part23.jpg,38,271,68,307,0
Part23.jpg,28,208,58,244,0
Part23.jpg,20,108,50,144,0
Part23.jpg,13,63,43,99,0
Part23.jpg,8,12,38,48,0
Part23.jpg,95,641,125,677,0
Part23.jpg,144,573,174,609,0
Part23.jpg,134,516,164,552,0
Part23.jpg,113,422,143,458,0
Part23.jpg,104,364,134,400,0
Part23.jpg,95,317,125,353,0
Part23.jpg,87,264,117,300,0
Part23.jpg,82,222,112,259,0
Part23.jpg,69,131,99,168,0
Part23.jpg,61,79,91,116,0
Part23.jpg,58,39,88,76,0
Part23.jpg,190,652,220,688,0
Part23.jpg,181,564,211,600,0
Part23.jpg,145,378,175,414,0
Part23.jpg,140,326,170,362,0
Part23.jpg,105,66,135,103,0
Part23.jpg,131,276,161,312,0
Part23.jpg,127,223,157,260,0
Part23.jpg,121,166,151,203,0
Part23.jpg,111,115,141,152,0
Part23.jpg,163,105,193,142,0
Part23.jpg,174,189,204,226,0
Part23.jpg,183,254,213,290,0
Part23.jpg,191,312,221,348,0
Part23.jpg,191,368,221,404,0
Part23.jpg,209,450,239,486,0
Part23.jpg,287,600,317,636,0
Part23.jpg,223,553,253,589,0
Part23.jpg,235,660,265,696,0
Part23.jpg,289,654,319,690,0
Part23.jpg,277,553,307,589,0
Part23.jpg,273,494,303,530,0
Part23.jpg,251,411,281,447,0
Part23.jpg,228,263,258,299,0
Part23.jpg,240,361,270,397,0
Part23.jpg,236,307,266,343,0
Part23.jpg,206,120,236,157,0
Part23.jpg,197,48,227,85,0
Part23.jpg,252,71,282,108,0
Part23.jpg,260,118,290,155,0
Part23.jpg,266,169,296,206,0
Part23.jpg,273,223,303,260,0
Part23.jpg,281,289,311,325,0
Part23.jpg,297,358,327,394,0
Part23.jpg,314,443,344,479,0
Part23.jpg,327,530,357,566,0
Part23.jpg,332,581,362,617,0
Part23.jpg,349,662,379,698,0
Part23.jpg,393,659,423,695,0
Part23.jpg,383,598,413,634,0
Part23.jpg,375,542,405,578,0
Part23.jpg,361,495,391,531,0
Part23.jpg,358,431,388,467,0
Part23.jpg,347,382,377,418,0
Part23.jpg,336,338,366,374,0
Part23.jpg,325,291,355,327,0
Part23.jpg,318,245,348,281,0
Part23.jpg,311,183,341,220,0
Part23.jpg,303,86,333,123,0
Part23.jpg,406,486,436,522,0
Part23.jpg,390,385,420,421,0
Part23.jpg,380,308,410,344,0
Part23.jpg,367,251,397,287,0
Part23.jpg,360,188,390,225,0
Part23.jpg,342,55,372,92,0
Part23.jpg,472,612,502,648,0
Part23.jpg,458,545,488,581,0
Part23.jpg,448,417,478,453,0
Part23.jpg,437,370,467,406,0
Part23.jpg,423,306,453,342,0
Part23.jpg,481,369,511,405,0
Part23.jpg,410,258,440,294,0
Part23.jpg,404,139,434,176,0
Part23.jpg,476,313,506,349,0
Part23.jpg,464,266,494,302,0
Part23.jpg,455,211,485,248,0
Part23.jpg,440,120,470,157,0
Part23.jpg,435,60,465,97,0
Part23.jpg,511,571,541,607,0
Part23.jpg,429,2,459,39,0
Part23.jpg,501,505,531,541,0
Part23.jpg,524,642,554,678,0
Part23.jpg,582,652,612,688,0
Part23.jpg,572,601,602,637,0
Part23.jpg,558,511,588,547,0
Part23.jpg,548,457,578,493,0
Part23.jpg,535,380,565,416,0
Part23.jpg,526,317,556,353,0
Part23.jpg,517,266,547,302,0
Part23.jpg,507,225,537,262,0
Part23.jpg,504,179,534,216,0
Part23.jpg,495,128,525,165,0
Part23.jpg,489,78,519,115,0
Part23.jpg,485,33,515,70,0
Part23.jpg,535,34,565,71,0
Part23.jpg,541,104,571,141,0
Part23.jpg,550,167,580,204,0
Part23.jpg,558,231,588,268,0
Part23.jpg,562,283,592,319,0
Part23.jpg,599,481,629,517,0
Part23.jpg,612,564,642,600,0
Part23.jpg,628,615,658,651,0
Part23.jpg,636,662,666,698,0
Part23.jpg,668,602,698,638,0
Part23.jpg,624,370,654,406,0
Part23.jpg,660,553,690,589,0
Part23.jpg,604,206,634,243,0
Part23.jpg,609,304,639,340,0
Part23.jpg,607,251,637,287,0
Part23.jpg,600,158,630,195,0
Part23.jpg,589,112,619,149,0
Part23.jpg,668,302,698,338,0
Part23.jpg,658,242,688,278,0
Part23.jpg,653,190,683,226,0
Part23.jpg,647,134,677,170,0
Part23.jpg,641,92,671,128,0
Part23.jpg,635,45,665,81,0
Part23.jpg,668,3,698,39,0
Part23.jpg,666,1,696,37,0
