Part24.jpg,50,661,80,697,0
Part24.jpg,37,580,67,616,0
Part24.jpg,35,471,65,507,0
Part24.jpg,81,438,111,474,0
Part24.jpg,28,399,58,435,0
Part24.jpg,23,329,53,365,0
Part24.jpg,112,623,142,659,0
Part24.jpg,102,565,132,601,0
Part24.jpg,94,498,124,534,0
Part24.jpg,75,377,105,413,0
Part24.jpg,71,303,101,339,0
Part24.jpg,64,256,94,292,0
Part24.jpg,121,296,151,332,0
Part24.jpg,32,42,62,78,0
Part24.jpg,47,96,77,132,0
Part24.jpg,128,348,158,384,0
Part24.jpg,130,398,160,434,0
Part24.jpg,137,458,167,494,0
Part24.jpg,147,509,177,545,0
Part24.jpg,156,565,186,601,0
Part24.jpg,166,613,196,649,0
Part24.jpg,92,80,122,116,0
Part24.jpg,140,80,170,116,0
Part24.jpg,150,172,180,208,0
Part24.jpg,166,261,196,297,0
Part24.jpg,174,307,204,343,0
Part24.jpg,177,364,207,400,0
Part24.jpg,183,418,213,454,0
Part24.jpg,202,496,232,532,0
Part24.jpg,210,559,240,595,0
Part24.jpg,221,633,251,669,0
Part24.jpg,273,340,303,376,0
Part24.jpg,263,249,293,285,0
Part24.jpg,251,151,281,187,0
Part24.jpg,251,26,281,62,0
Part24.jpg,286,443,316,479,0
Part24.jpg,357,580,387,616,0
Part24.jpg,341,474,371,510,0
Part24.jpg,322,401,352,437,0
Part24.jpg,320,336,350,372,0
Part24.jpg,312,280,342,316,0
Part24.jpg,311,237,341,273,0
Part24.jpg,297,143,327,179,0
Part24.jpg,358,214,388,250,0
Part24.jpg,361,268,391,304,0
Part24.jpg,363,331,393,367,0
Part24.jpg,374,382,404,418,0
Part24.jpg,380,428,410,464,0
Part24.jpg,395,529,425,565,0
Part24.jpg,454,564,484,600,0
Part24.jpg,439,456,469,492,0
Part24.jpg,429,365,459,401,0
Part24.jpg,412,250,442,286,0
Part24.jpg,395,179,425,215,0
Part24.jpg,381,67,411,103,0
Part24.jpg,540,503,570,539,0
Part24.jpg,377,21,407,57,0
Part24.jpg,465,317,495,353,0
Part24.jpg,477,433,507,469,0
Part24.jpg,497,528,527,564,0
Part24.jpg,500,579,530,615,0
Part24.jpg,506,647,536,683,0
Part24.jpg,547,558,577,594,0
Part24.jpg,518,300,548,336,0
Part24.jpg,502,231,532,267,0
Part24.jpg,496,171,526,207,0
Part24.jpg,551,206,581,242,0
Part24.jpg,552,271,582,307,0
Part24.jpg,578,419,608,455,0
Part24.jpg,601,559,631,595,0
Part24.jpg,609,616,639,652,0
Part24.jpg,653,591,683,627,0
Part24.jpg,623,349,653,385,0
Part24.jpg,619,289,649,325,0
Part24.jpg,603,236,633,272,0
Part24.jpg,593,178,623,214,0
Part24.jpg,589,133,619,169,0
Part24.jpg,668,317,698,353,0
Part24.jpg,648,191,678,227,0
Part24.jpg,652,244,682,280,0
Part24.jpg,666,315,696,351,0
