Part35.jpg 83 708 113 744
Part35.jpg 63 559 93 595
Part35.jpg 76 650 106 686
Part35.jpg 54 494 84 530
Part35.jpg 52 450 82 486
Part35.jpg 1 293 30 329
Part35.jpg 1 249 30 285
Part35.jpg 1 207 30 243
Part35.jpg 90 343 120 379
Part35.jpg 86 285 116 321
Part35.jpg 529 643 559 679
Part35.jpg 503 537 533 573
Part35.jpg 493 418 523 454
Part35.jpg 479 331 509 367
Part35.jpg 327 663 357 699
Part35.jpg 316 552 346 588
Part35.jpg 328 609 358 645
Part35.jpg 294 353 324 389
Part35.jpg 291 11 321 47
Part35.jpg 255 165 285 201
Part35.jpg 246 110 276 146
Part35.jpg 289 50 319 86
Part35.jpg 364 528 394 564
Part35.jpg 370 571 400 607
Part35.jpg 345 366 375 402
Part35.jpg 458 540 488 576
Part35.jpg 450 490 480 526
Part35.jpg 438 380 468 416
Part35.jpg 415 708 445 745
Part35.jpg 508 188 538 224
Part35.jpg 519 256 549 292
Part35.jpg 531 343 561 379
Part35.jpg 553 488 583 524
Part35.jpg 558 542 588 578
Part35.jpg 576 617 606 653
Part35.jpg 585 706 615 743
Part35.jpg 623 609 653 646
Part35.jpg 598 451 628 488
Part35.jpg 561 215 591 252
Part35.jpg 613 209 643 246
Part35.jpg 663 549 693 586
Part35.jpg 212 561 243 598
Part35.jpg 190 415 221 452
Part35.jpg 153 529 184 565
Part35.jpg 149 432 180 468
Part35.jpg 149 50 180 86
Part35.jpg 227 311 258 347
Part35.jpg 236 377 267 413
Part35.jpg 395 108 425 144
Part35.jpg 385 47 415 83
Part35.jpg 544 28 574 64
Part35.jpg 173 646 204 682
Part35.jpg 178 706 209 742
Part35.jpg 213 180 244 216
Part35.jpg 199 76 230 112
Part35.jpg 660 499 690 535
Part35.jpg 454 148 484 184
Part35.jpg 462 202 492 238
Part35.jpg 473 273 503 309
Part35.jpg 640 387 670 423
Part35.jpg 266 540 296 576
Part35.jpg 246 448 276 484
Part35.jpg 95 63 125 99
Part35.jpg 79 170 109 206
Part35.jpg 73 115 103 151
Part35.jpg 28 692 58 728
Part35.jpg 28 692 58 728