Part11.jpg 19 701 49 737
Part11.jpg 14 641 44 677
Part11.jpg 12 465 42 501
Part11.jpg 62 594 92 630
Part11.jpg 62 667 92 703
Part11.jpg 119 781 149 817
Part11.jpg 109 645 139 681
Part11.jpg 103 579 133 615
Part11.jpg 98 217 128 253
Part11.jpg 86 429 116 465
Part11.jpg 78 334 108 370
Part11.jpg 29 298 59 334
Part11.jpg 97 158 127 194
Part11.jpg 129 421 159 457
Part11.jpg 135 478 165 514
Part11.jpg 143 548 173 584
Part11.jpg 148 613 178 649
Part11.jpg 156 691 186 727
Part11.jpg 172 448 202 484
Part11.jpg 158 735 188 771
Part11.jpg 159 785 189 821
Part11.jpg 168 403 198 439
Part11.jpg 180 504 210 540
Part11.jpg 191 562 221 598
Part11.jpg 197 615 227 651
Part11.jpg 200 662 230 698
Part11.jpg 203 720 233 756
Part11.jpg 210 783 240 819
Part11.jpg 140 188 170 224
Part11.jpg 144 251 174 287
Part11.jpg 134 124 164 160
Part11.jpg 134 79 164 115
Part11.jpg 166 15 196 51
Part11.jpg 174 62 204 98
Part11.jpg 180 115 210 151
Part11.jpg 185 171 215 207
Part11.jpg 187 225 217 261
Part11.jpg 199 282 229 318
Part11.jpg 213 367 243 403
Part11.jpg 221 433 251 469
Part11.jpg 228 500 258 536
Part11.jpg 235 569 265 605
Part11.jpg 240 626 270 662
Part11.jpg 249 685 279 721
Part11.jpg 253 745 283 781
Part11.jpg 219 7 249 43
Part11.jpg 223 61 253 97
Part11.jpg 231 114 261 150
Part11.jpg 233 163 263 199
Part11.jpg 234 209 264 245
Part11.jpg 250 305 280 341
Part11.jpg 256 364 286 400
Part11.jpg 267 417 297 453
Part11.jpg 277 473 307 509
Part11.jpg 283 523 313 559
Part11.jpg 284 584 314 620
Part11.jpg 287 636 317 672
Part11.jpg 293 708 323 744
Part11.jpg 311 430 341 466
Part11.jpg 280 141 310 177
Part11.jpg 272 82 302 118
Part11.jpg 294 309 324 345
Part11.jpg 334 640 364 676
Part11.jpg 345 701 375 737
Part11.jpg 326 494 356 530
Part11.jpg 312 7 342 43
Part11.jpg 317 61 347 97
Part11.jpg 320 115 350 151
Part11.jpg 327 173 357 209
Part11.jpg 335 259 365 295
Part11.jpg 341 305 371 341
Part11.jpg 349 354 379 390
Part11.jpg 357 402 387 438
Part11.jpg 365 447 395 483
Part11.jpg 371 492 401 528
Part11.jpg 373 541 403 577
Part11.jpg 379 592 409 628
Part11.jpg 381 641 411 677
Part11.jpg 390 691 420 727
Part11.jpg 392 743 422 779
Part11.jpg 379 276 409 312
Part11.jpg 399 374 429 410
Part11.jpg 401 428 431 464
Part11.jpg 414 502 444 538
Part11.jpg 419 563 449 599
Part11.jpg 421 616 451 652
Part11.jpg 427 670 457 706
Part11.jpg 436 736 466 772
Part11.jpg 389 32 419 68
Part11.jpg 395 94 425 130
Part11.jpg 403 146 433 182
Part11.jpg 410 199 440 235
Part11.jpg 418 260 448 296
Part11.jpg 425 312 455 348
Part11.jpg 436 378 466 414
Part11.jpg 446 429 476 465
Part11.jpg 457 487 487 523
Part11.jpg 462 546 492 582
Part11.jpg 467 602 497 638
Part11.jpg 475 652 505 688
Part11.jpg 479 708 509 744
Part11.jpg 485 766 515 802
Part11.jpg 439 17 469 53
Part11.jpg 439 79 469 115
Part11.jpg 445 130 475 166
Part11.jpg 453 189 483 225
Part11.jpg 461 239 491 275
Part11.jpg 468 290 498 326
Part11.jpg 477 336 507 372
Part11.jpg 498 450 528 486
Part11.jpg 505 505 535 541
Part11.jpg 510 556 540 592
Part11.jpg 508 604 538 640
Part11.jpg 522 661 552 697
Part11.jpg 527 709 557 745
Part11.jpg 531 760 561 796
Part11.jpg 483 31 513 67
Part11.jpg 492 86 522 122
Part11.jpg 495 139 525 175
Part11.jpg 500 188 530 224
Part11.jpg 508 237 538 273
Part11.jpg 515 286 545 322
Part11.jpg 528 334 558 370
Part11.jpg 534 383 564 419
Part11.jpg 539 436 569 472
Part11.jpg 544 484 574 520
Part11.jpg 552 536 582 572
Part11.jpg 562 580 592 616
Part11.jpg 595 678 625 714
Part11.jpg 564 630 594 666
Part11.jpg 629 739 659 775
Part11.jpg 602 554 632 590
Part11.jpg 599 508 629 544
Part11.jpg 583 425 613 461
Part11.jpg 575 365 605 401
Part11.jpg 567 307 597 343
Part11.jpg 561 246 591 282
Part11.jpg 599 203 629 239
Part11.jpg 591 149 621 185
Part11.jpg 544 147 574 183
Part11.jpg 530 5 560 41
Part11.jpg 601 254 631 290
Part11.jpg 612 320 642 356
Part11.jpg 633 454 663 490
Part11.jpg 639 178 669 214
Part11.jpg 636 509 666 545
Part11.jpg 678 466 708 502
Part11.jpg 681 518 711 554
Part11.jpg 694 236 724 272
Part11.jpg 682 169 712 205
Part11.jpg 727 467 757 503
Part11.jpg 733 520 763 556
Part11.jpg 718 104 748 140
Part11.jpg 753 657 783 693
Part11.jpg 770 486 800 522
Part11.jpg 755 395 785 431
Part11.jpg 703 7 733 43
Part11.jpg 703 7 733 43