Part31.jpg 89 179 119 215
Part31.jpg 19 326 49 362
Part31.jpg 21 371 51 407
Part31.jpg 23 415 53 451
Part31.jpg 35 535 65 571
Part31.jpg 28 465 58 501
Part31.jpg 37 585 67 621
Part31.jpg 38 641 68 677
Part31.jpg 59 276 89 312
Part31.jpg 71 388 101 424
Part31.jpg 72 438 102 474
Part31.jpg 76 489 106 525
Part31.jpg 86 595 116 631
Part31.jpg 81 643 111 679
Part31.jpg 97 242 127 278
Part31.jpg 102 293 132 329
Part31.jpg 111 351 141 387
Part31.jpg 119 421 149 457
Part31.jpg 121 471 151 507
Part31.jpg 136 552 166 588
Part31.jpg 146 609 176 645
Part31.jpg 154 662 184 698
Part31.jpg 146 254 176 290
Part31.jpg 149 308 179 344
Part31.jpg 153 372 183 408
Part31.jpg 164 421 194 457
Part31.jpg 176 521 206 557
Part31.jpg 128 70 158 106
Part31.jpg 126 18 156 54
Part31.jpg 139 206 169 242
Part31.jpg 46 190 76 226
Part31.jpg 187 143 217 179
Part31.jpg 185 97 215 133
Part31.jpg 192 217 222 254
Part31.jpg 203 281 233 317
Part31.jpg 208 345 238 381
Part31.jpg 214 403 244 439
Part31.jpg 217 458 247 494
Part31.jpg 228 532 258 568
Part31.jpg 237 580 267 616
Part31.jpg 241 198 271 235
Part31.jpg 249 282 279 318
Part31.jpg 244 246 274 282
Part31.jpg 253 333 283 369
Part31.jpg 238 144 268 181
Part31.jpg 236 103 266 140
Part31.jpg 232 59 262 96
Part31.jpg 228 7 258 44
Part31.jpg 257 382 287 418
Part31.jpg 273 475 303 511
Part31.jpg 269 430 299 466
Part31.jpg 283 539 313 575
Part31.jpg 288 619 318 655
Part31.jpg 334 170 364 207
Part31.jpg 338 115 368 152
Part31.jpg 334 62 364 99
Part31.jpg 327 17 357 54
Part31.jpg 280 41 310 78
Part31.jpg 280 88 310 125
Part31.jpg 279 137 309 174
Part31.jpg 290 189 320 226
Part31.jpg 294 248 324 284
Part31.jpg 301 303 331 339
Part31.jpg 536 532 566 568
Part31.jpg 530 479 560 515
Part31.jpg 525 433 555 469
Part31.jpg 517 387 547 423
Part31.jpg 512 339 542 375
Part31.jpg 502 291 532 327
Part31.jpg 500 244 530 280
Part31.jpg 488 162 518 199
Part31.jpg 490 112 520 149
Part31.jpg 486 66 516 103
Part31.jpg 479 13 509 50
Part31.jpg 452 268 482 304
Part31.jpg 440 196 470 233
Part31.jpg 455 316 485 352
Part31.jpg 475 455 505 491
Part31.jpg 485 515 515 551
Part31.jpg 548 640 578 676
Part31.jpg 574 448 604 484
Part31.jpg 555 323 585 359
Part31.jpg 548 241 578 277
Part31.jpg 539 152 569 189
Part31.jpg 531 75 561 112
Part31.jpg 579 494 609 530
Part31.jpg 583 95 613 132
Part31.jpg 588 141 618 178
Part31.jpg 593 192 623 229
Part31.jpg 597 241 627 277
Part31.jpg 602 296 632 332
Part31.jpg 614 349 644 385
Part31.jpg 628 469 658 505
Part31.jpg 653 255 683 291
Part31.jpg 646 206 676 243
Part31.jpg 644 151 674 188
Part31.jpg 363 349 393 385
Part31.jpg 360 296 390 332
Part31.jpg 440 131 470 168
Part31.jpg 440 131 470 168