Part12.jpg 31 721 61 757
Part12.jpg 18 605 48 641
Part12.jpg 63 563 93 599
Part12.jpg 66 615 96 651
Part12.jpg 79 708 109 744
Part12.jpg 19 103 49 139
Part12.jpg 61 321 91 357
Part12.jpg 23 159 53 195
Part12.jpg 82 438 112 474
Part12.jpg 87 486 117 522
Part12.jpg 107 559 137 595
Part12.jpg 113 607 143 643
Part12.jpg 121 673 151 709
Part12.jpg 133 750 163 786
Part12.jpg 77 156 107 192
Part12.jpg 62 69 92 105
Part12.jpg 107 305 137 341
Part12.jpg 114 359 144 395
Part12.jpg 139 491 169 527
Part12.jpg 149 537 179 573
Part12.jpg 156 607 186 643
Part12.jpg 167 699 197 735
Part12.jpg 176 757 206 793
Part12.jpg 185 833 215 869
Part12.jpg 115 92 145 128
Part12.jpg 127 147 157 183
Part12.jpg 140 230 170 266
Part12.jpg 154 290 184 326
Part12.jpg 162 355 192 391
Part12.jpg 179 445 209 481
Part12.jpg 189 493 219 529
Part12.jpg 194 547 224 583
Part12.jpg 203 592 233 628
Part12.jpg 219 718 249 754
Part12.jpg 208 644 238 680
Part12.jpg 228 778 258 814
Part12.jpg 234 833 264 869
Part12.jpg 217 382 247 418
Part12.jpg 234 485 264 521
Part12.jpg 243 552 273 588
Part12.jpg 252 663 282 699
Part12.jpg 247 296 277 332
Part12.jpg 265 726 295 762
Part12.jpg 280 827 310 863
Part12.jpg 221 177 251 213
Part12.jpg 206 116 236 152
Part12.jpg 199 58 229 94
Part12.jpg 262 374 292 410
Part12.jpg 279 475 309 511
Part12.jpg 283 528 313 564
Part12.jpg 297 603 327 639
Part12.jpg 302 676 332 712
Part12.jpg 317 791 347 827
Part12.jpg 260 152 290 188
Part12.jpg 318 460 348 496
Part12.jpg 324 516 354 552
Part12.jpg 361 738 391 774
Part12.jpg 353 687 383 723
Part12.jpg 368 787 398 823
Part12.jpg 370 833 400 869
Part12.jpg 341 589 371 625
Part12.jpg 284 48 314 84
Part12.jpg 294 98 324 134
Part12.jpg 309 182 339 218
Part12.jpg 327 232 357 268
Part12.jpg 335 301 365 337
Part12.jpg 343 358 373 394
Part12.jpg 351 407 381 443
Part12.jpg 362 461 392 497
Part12.jpg 368 508 398 544
Part12.jpg 384 562 414 598
Part12.jpg 394 611 424 647
Part12.jpg 398 671 428 707
Part12.jpg 404 724 434 760
Part12.jpg 411 786 441 822
Part12.jpg 418 833 448 869
Part12.jpg 377 285 407 321
Part12.jpg 392 336 422 372
Part12.jpg 397 389 427 425
Part12.jpg 411 437 441 473
Part12.jpg 419 488 449 524
Part12.jpg 427 537 457 573
Part12.jpg 435 608 465 644
Part12.jpg 442 658 472 694
Part12.jpg 452 742 482 778
Part12.jpg 465 810 495 846
Part12.jpg 367 28 397 64
Part12.jpg 379 84 409 120
Part12.jpg 429 306 459 342
Part12.jpg 435 356 465 392
Part12.jpg 444 407 474 443
Part12.jpg 454 460 484 496
Part12.jpg 463 515 493 551
Part12.jpg 473 564 503 600
Part12.jpg 491 627 521 663
Part12.jpg 498 709 528 745
Part12.jpg 507 786 537 822
Part12.jpg 434 108 464 144
Part12.jpg 424 62 454 98
Part12.jpg 416 9 446 45
Part12.jpg 454 227 484 263
Part12.jpg 474 317 504 353
Part12.jpg 486 366 516 402
Part12.jpg 497 418 527 454
Part12.jpg 511 470 541 506
Part12.jpg 513 554 543 590
Part12.jpg 532 606 562 642
Part12.jpg 539 670 569 706
Part12.jpg 544 713 574 749
Part12.jpg 504 223 534 259
Part12.jpg 517 271 547 307
Part12.jpg 525 318 555 354
Part12.jpg 533 369 563 405
Part12.jpg 543 418 573 454
Part12.jpg 551 479 581 515
Part12.jpg 560 526 590 562
Part12.jpg 567 577 597 613
Part12.jpg 590 721 620 757
Part12.jpg 576 638 606 674
Part12.jpg 607 817 637 853
Part12.jpg 643 748 673 784
Part12.jpg 632 688 662 724
Part12.jpg 589 427 619 463
Part12.jpg 625 626 655 662
Part12.jpg 608 550 638 586
Part12.jpg 594 479 624 515
Part12.jpg 584 375 614 411
Part12.jpg 572 318 602 354
Part12.jpg 553 238 583 274
Part12.jpg 544 188 574 224
Part12.jpg 530 139 560 175
Part12.jpg 516 86 546 122
Part12.jpg 506 29 536 65
Part12.jpg 667 624 697 660
Part12.jpg 689 753 719 789
Part12.jpg 675 701 705 737
Part12.jpg 655 565 685 601
Part12.jpg 653 516 683 552
Part12.jpg 636 463 666 499
Part12.jpg 632 403 662 439
Part12.jpg 623 354 653 390
Part12.jpg 613 305 643 341
Part12.jpg 598 232 628 268
Part12.jpg 584 176 614 212
Part12.jpg 566 123 596 159
Part12.jpg 555 78 585 114
Part12.jpg 546 20 576 56
Part12.jpg 596 21 626 57
Part12.jpg 601 70 631 106
Part12.jpg 626 150 656 186
Part12.jpg 645 218 675 254
Part12.jpg 655 269 685 305
Part12.jpg 664 320 694 356
Part12.jpg 668 369 698 405
Part12.jpg 682 427 712 463
Part12.jpg 688 484 718 520
Part12.jpg 702 559 732 595
Part12.jpg 711 610 741 646
Part12.jpg 721 661 751 697
Part12.jpg 732 718 762 754
Part12.jpg 744 769 774 805
Part12.jpg 643 10 673 46
Part12.jpg 656 65 686 101
Part12.jpg 670 125 700 161
Part12.jpg 682 177 712 213
Part12.jpg 693 229 723 265
Part12.jpg 700 278 730 314
Part12.jpg 708 327 738 363
Part12.jpg 718 392 748 428
Part12.jpg 733 446 763 482
Part12.jpg 740 504 770 540
Part12.jpg 746 559 776 595
Part12.jpg 758 611 788 647
Part12.jpg 774 667 804 703
Part12.jpg 784 723 814 759
Part12.jpg 797 777 827 813
Part12.jpg 806 831 836 867
Part12.jpg 818 655 848 691
Part12.jpg 803 599 833 635
Part12.jpg 795 541 825 577
Part12.jpg 775 468 805 504
Part12.jpg 765 406 795 442
Part12.jpg 757 348 787 384
Part12.jpg 749 288 779 324
Part12.jpg 738 237 768 273
Part12.jpg 721 176 751 212
Part12.jpg 709 117 739 153
Part12.jpg 703 68 733 104
Part12.jpg 732 1 762 36
Part12.jpg 775 48 805 84
Part12.jpg 788 111 818 147
Part12.jpg 801 163 831 199
Part12.jpg 806 214 836 250
Part12.jpg 789 299 819 335
Part12.jpg 803 360 833 396
Part12.jpg 810 418 840 454
Part12.jpg 819 471 849 507
Part12.jpg 747 118 777 154
Part12.jpg 764 197 794 233
Part12.jpg 839 110 869 146
Part12.jpg 839 110 869 146